{
  "paging": {
    "total": 10,
    "total_pages": 2,
    "limit": 5,
    "offset": 0
  },
  "data": [
    {
      "id": "01JD2P9GGXAPBDGG6YT90N77M3",
      "type": "online",
      "processing_mode": "automatic",
      "capture_mode": "automatic_async",
      "external_reference": "ext_ref_1234",
      "total_amount": "200.00",
      "site_id": "MLB",
      "status": "processed",
      "status_detail": "accredited",
      "created_date": "2024-11-19T17:07:31.486Z",
      "last_updated_date": "2024-11-19T17:07:33.068Z",
      "payer": {
        "email": "test_1731354550@testuser.com"
      },
      "transactions": {
        "payments": []
      }
    }
  ]
}
